Year in which death was registered,All,3-year moving annual average,5-year moving annual average,Male,Female,not counted in NRS standard definition (Drug-related),counted in NRS standard definition (Drug-related),not counted in ONS 'wide' definition (Drug-related),counted in ONS 'wide' definition (Drug-related)
2000,9,,,8,1,8,1,5,4
2001,10,10,,6,4,8,2,6,4
2002,10,10,8,9,1,10,.,5,5
2003,9,7,7,7,2,9,.,6,3
2004,1,6,7,1,.,1,.,1,.
2005,7,5,7,5,2,6,1,4,3
2006,8,9,7,3,5,8,.,7,1
2007,12,9,10,8,4,10,2,5,7
2008,6,11,10,6,.,5,1,2,4
2009,16,11,14,9,7,14,2,5,11
2010,10,17,15,9,1,10,.,3,7
2011,25,18,16,16,9,19,6,18,7
2012,18,18,16,14,4,17,1,13,5
2013,12,15,16,9,3,11,1,11,1
2014,14,12,13,11,3,10,4,8,6
2015,9,12,11,7,2,5,4,4,5
2016,13,10,12,8,5,9,4,8,5
2017,8,12,,5,3,6,2,5,3
2018,14,,,9,5,9,5,8,6
