Age-group,2014,2015,2016,2017,2018
All ages,6051,6264,6442,6474,6604
0,61,52,64,53,58
1-4,3,7,12,3,3
5-9,1,1,8,3,5
10-14,6,5,5,10,6
15-19,19,11,23,14,19
20-24,44,25,44,30,35
25-29,48,56,56,40,53
30-34,87,89,91,75,91
35-39,115,141,151,163,179
40-44,214,196,233,213,214
45-49,323,346,345,286,312
50-54,430,480,467,492,507
55-59,628,627,636,650,618
60-64,833,796,860,865,890
65-69,1228,1272,1283,1281,1263
70-74,1538,1653,1646,1704,1787
75-79,61,58,70,78,60
80-84,101,125,96,134,94
85-89,144,131,152,153,163
90-94,104,129,122,156,168
95+,63,64,78,71,79
