Age-group,2014,2015,2016,2017,2018
All ages,14793,15379,15933,15774,16117
0,138,122,119,125,112
1-4,10,12,23,8,12
5-9,7,6,17,5,8
10-14,20,10,11,19,14
15-19,62,56,71,61,81
20-24,138,102,130,115,146
25-29,175,189,231,182,230
30-34,231,289,302,295,292
35-39,361,380,390,447,493
40-44,590,555,682,589,621
45-49,833,870,920,868,905
50-54,1106,1175,1270,1256,1260
55-59,1527,1554,1641,1608,1625
60-64,2069,2077,2152,2136,2212
65-69,3046,3204,3200,3108,3015
70-74,3686,3942,3846,3955,4111
75-79,128,136,161,171,145
80-84,203,207,211,227,215
85-89,223,216,257,259,268
90-94,167,195,192,245,242
95+,73,82,107,95,110
